[Ivy]
169242C6C5B22EE2 3.20 #module
>Proto >Proto Collection #zClass
Ee0 Example Big #zClass
Ee0 B #cInfo
Ee0 #process
Ee0 @TextInP .resExport .resExport #zField
Ee0 @TextInP .type .type #zField
Ee0 @TextInP .processKind .processKind #zField
Ee0 @AnnotationInP-0n ai ai #zField
Ee0 @MessageFlowInP-0n messageIn messageIn #zField
Ee0 @MessageFlowOutP-0n messageOut messageOut #zField
Ee0 @TextInP .xml .xml #zField
Ee0 @TextInP .responsibility .responsibility #zField
Ee0 @StartRequest f0 '' #zField
Ee0 @EndTask f1 '' #zField
Ee0 @RichDialog f3 '' #zField
Ee0 @PushWFArc f4 '' #zField
Ee0 @PushWFArc f2 '' #zField
>Proto Ee0 Ee0 Example #zField
Ee0 f0 outLink start.ivp #txt
Ee0 f0 type ivy.aspose.Data #txt
Ee0 f0 inParamDecl '<> param;' #txt
Ee0 f0 actionDecl 'ivy.aspose.Data out;
' #txt
Ee0 f0 guid 169242C6C63345A3 #txt
Ee0 f0 requestEnabled true #txt
Ee0 f0 triggerEnabled false #txt
Ee0 f0 callSignature start() #txt
Ee0 f0 caseData businessCase.attach=true #txt
Ee0 f0 @C|.xml '<?xml version="1.0" encoding="UTF-8" standalone="yes"?>
<elementInfo>
    <language>
        <name>start.ivp</name>
    </language>
</elementInfo>
' #txt
Ee0 f0 @C|.responsibility Everybody #txt
Ee0 f0 81 49 30 30 -21 17 #rect
Ee0 f0 @|StartRequestIcon #fIcon
Ee0 f1 type ivy.aspose.Data #txt
Ee0 f1 337 49 30 30 0 15 #rect
Ee0 f1 @|EndIcon #fIcon
Ee0 f3 targetWindow NEW #txt
Ee0 f3 targetDisplay TOP #txt
Ee0 f3 richDialogId ivy.aspose.CreateWordFromTemplate #txt
Ee0 f3 startMethod start() #txt
Ee0 f3 type ivy.aspose.Data #txt
Ee0 f3 requestActionDecl '<> param;' #txt
Ee0 f3 responseActionDecl 'ivy.aspose.Data out;
' #txt
Ee0 f3 responseMappingAction 'out=in;
' #txt
Ee0 f3 isAsynch false #txt
Ee0 f3 isInnerRd false #txt
Ee0 f3 userContext '* ' #txt
Ee0 f3 168 42 112 44 0 -8 #rect
Ee0 f3 @|RichDialogIcon #fIcon
Ee0 f4 expr out #txt
Ee0 f4 111 64 168 64 #arcP
Ee0 f2 expr out #txt
Ee0 f2 280 64 337 64 #arcP
>Proto Ee0 .type ivy.aspose.Data #txt
>Proto Ee0 .processKind NORMAL #txt
>Proto Ee0 0 0 32 24 18 0 #rect
>Proto Ee0 @|BIcon #fIcon
Ee0 f0 mainOut f4 tail #connect
Ee0 f4 head f3 mainIn #connect
Ee0 f3 mainOut f2 tail #connect
Ee0 f2 head f1 mainIn #connect
